…
    ## 'data.frame':    473760 obs. of  4 variables:
    ##  $ week           : int  1 1 1 1 1 1 1 2 2 2 ...
    ##  $ day            : Factor w/ 7 levels "Sunday","Monday",..: 6 2 7 1 5 3 4 6 2 7 ...
    ##  $ activity_number: chr  "activity_1" "activity_1" "activity_1" "activity_1" ...
    ##  $ activity       : num  1 1 1 1 1 1 1 1 1 1 ...

``` r
### explore the number of "1"
mtp_tidy %>%
  filter(activity == 1.00000) %>%
  group_by(week) %>% 
  summarise(n = n())
```

    ## # A tibble: 47 x 2
    ##     week     n
    ##    <int> <int>
    ##  1     1  5185
    ##  2     2  6040
    ##  3     3 10069
    ##  4     4  8753
    ##  5     5  3988
    ##  6     6  3589
    ##  7     7  4963
    ##  8     8  5193
    ##  9     9  4201
    ## 10    10  4033
    ## # ... with 37 more rows
…
